%YAML 1.1
%TAG !u! tag:unity3d.com,2011:
--- !u!1001 &100100000
Prefab:
  m_ObjectHideFlags: 1
  serializedVersion: 2
  m_Modification:
    m_TransformParent: {fileID: 0}
    m_Modifications: []
    m_RemovedComponents: []
  m_ParentPrefab: {fileID: 0}
  m_RootGameObject: {fileID: 1933651537398772}
  m_IsPrefabParent: 1
--- !u!1 &1933651537398772
GameObject:
  m_ObjectHideFlags: 0
  m_PrefabParentObject: {fileID: 0}
  m_PrefabInternal: {fileID: 100100000}
  serializedVersion: 5
  m_Component:
  - component: {fileID: 4254654535058908}
  - component: {fileID: 114637916401006990}
  m_Layer: 0
  m_Name: EarthBall
  m_TagString: Untagged
  m_Icon: {fileID: 0}
  m_NavMeshLayer: 0
  m_StaticEditorFlags: 0
  m_IsActive: 1
--- !u!4 &4254654535058908
Transform:
  m_ObjectHideFlags: 1
  m_PrefabParentObject: {fileID: 0}
  m_PrefabInternal: {fileID: 100100000}
  m_GameObject: {fileID: 1933651537398772}
  m_LocalRotation: {x: 0, y: 0, z: 0, w: 1}
  m_LocalPosition: {x: 0, y: 0, z: 0}
  m_LocalScale: {x: 4.5, y: 4.5, z: 4.5}
  m_Children: []
  m_Father: {fileID: 0}
  m_RootOrder: 0
  m_LocalEulerAnglesHint: {x: 0, y: 0, z: 0}
--- !u!114 &114637916401006990
MonoBehaviour:
  m_ObjectHideFlags: 1
  m_PrefabParentObject: {fileID: 0}
  m_PrefabInternal: {fileID: 100100000}
  m_GameObject: {fileID: 1933651537398772}
  m_Enabled: 1
  m_EditorHideFlags: 0
  m_Script: {fileID: 11500000, guid: e917f9fd65c1d4b79a558aed0abb41a5, type: 3}
  m_Name: 
  m_EditorClassIdentifier: 
  mainTexture: {fileID: 2800000, guid: 77302a130ede942559aaf3a2c5612906, type: 3}
  trailTexture: {fileID: 2800000, guid: d82afc1ea150a4fd1a49a03ebbb6c8db, type: 3}
  trailColor: {r: 1, g: 1, b: 1, a: 0.5019608}
  deathBallColors:
  - {r: 0.5411765, g: 0.47058827, b: 0.36862746, a: 0}
  - {r: 0.8862746, g: 0.8862746, b: 0.9294118, a: 0}
  - {r: 0.43137258, g: 0.5647059, b: 0.28235295, a: 0}
  - {r: 0.07450981, g: 0.23529413, b: 0.3254902, a: 0}
  - {r: 0.10196079, g: 0.2901961, b: 0.40000004, a: 0}
  - {r: 0.38823533, g: 0.5568628, b: 0.2509804, a: 0}
  - {r: 0.10196079, g: 0.2901961, b: 0.40000004, a: 0}
  cost: 1000
