%YAML 1.1
%TAG !u! tag:unity3d.com,2011:
--- !u!1001 &100100000
Prefab:
  m_ObjectHideFlags: 1
  serializedVersion: 2
  m_Modification:
    m_TransformParent: {fileID: 0}
    m_Modifications: []
    m_RemovedComponents: []
  m_ParentPrefab: {fileID: 0}
  m_RootGameObject: {fileID: 1933651537398772}
  m_IsPrefabParent: 1
--- !u!1 &1933651537398772
GameObject:
  m_ObjectHideFlags: 0
  m_PrefabParentObject: {fileID: 0}
  m_PrefabInternal: {fileID: 100100000}
  serializedVersion: 5
  m_Component:
  - component: {fileID: 4254654535058908}
  - component: {fileID: 114637916401006990}
  m_Layer: 0
  m_Name: FacebookBall
  m_TagString: Untagged
  m_Icon: {fileID: 0}
  m_NavMeshLayer: 0
  m_StaticEditorFlags: 0
  m_IsActive: 1
--- !u!4 &4254654535058908
Transform:
  m_ObjectHideFlags: 1
  m_PrefabParentObject: {fileID: 0}
  m_PrefabInternal: {fileID: 100100000}
  m_GameObject: {fileID: 1933651537398772}
  m_LocalRotation: {x: 0, y: 0, z: 0, w: 1}
  m_LocalPosition: {x: 0, y: 0, z: 0}
  m_LocalScale: {x: 4.5, y: 4.5, z: 4.5}
  m_Children: []
  m_Father: {fileID: 0}
  m_RootOrder: 0
  m_LocalEulerAnglesHint: {x: 0, y: 0, z: 0}
--- !u!114 &114637916401006990
MonoBehaviour:
  m_ObjectHideFlags: 1
  m_PrefabParentObject: {fileID: 0}
  m_PrefabInternal: {fileID: 100100000}
  m_GameObject: {fileID: 1933651537398772}
  m_Enabled: 1
  m_EditorHideFlags: 0
  m_Script: {fileID: 11500000, guid: e917f9fd65c1d4b79a558aed0abb41a5, type: 3}
  m_Name: 
  m_EditorClassIdentifier: 
  mainTexture: {fileID: 2800000, guid: b0b82c92062de42fea33cb815c4f67b1, type: 3}
  trailTexture: {fileID: 2800000, guid: ee3c751c7b07d4d40a3e5ac2acf2b42f, type: 3}
  trailColor: {r: 0, g: 0.7372549, b: 0.69803923, a: 0.2509804}
  deathBallColors:
  - {r: 0, g: 0.7411765, b: 0.6784314, a: 0}
  - {r: 0, g: 0.41960788, b: 0.52156866, a: 0}
  cost: 500
